{
	"expensestype" : [
		"<td>{SNO}</td>",
		"<td>{NAME}</td>",
		"<td>{DESCRIPTION}</td>",
		"<td><a type='button' class='btn btn-warning btn-outline btn-circle m-r-5' id='buttonView' data-id='{ID}'><i class='icon-eye'></i></a><a type='button' class='btn btn-info btn-outline btn-circle m-r-5' id='buttonEdit' data-id='{ID}'><i class='ti-pencil-alt'></i></a><a type='button' class='btn btn-danger btn-outline btn-circle m-r-5' id='buttonDelete' data-id='{ID}'> <i class='ti-trash'></i></a></td>"
	]
}